{
  "PASSPORT_ALREADY_EXISTS": "Паспорт з такою серією та номером вже існує",
  "PERSON_ALREADY_EXISTS": "Фізична особа з таким ІПН вже існує",
  "COMPANY_ALREADY_EXISTS": "Компанія з таким ЄДРПОУ вже існує",
  "EMPLOYEE_ALREADY_EXISTS": "Робітник вже існує"
}
